{
  "images" : [
    {
      "idiom" : "universal",
      "scale" : "1x"
    },
    {
      "idiom" : "universal",
      "filename" : "WhatsApp Image 2019-11-10 at 10.15.30 PM-1 copy.jpeg",
      "scale" : "2x"
    },
    {
      "idiom" : "universal",
      "filename" : "WhatsApp Image 2019-11-10 at 10.15.30 PM-1.jpeg",
      "scale" : "3x"
    }
  ],
  "info" : {
    "version" : 1,
    "author" : "xcode"
  }
}